UART_SV/dump.vcd
$date
Fri Aug 25 03:00:10 2023
$end
$version
Riviera-PRO Version 2022.04.117.8517
$end
$timescale
1 ps
$end

$scope module tb $end

$scope module vif $end
$var reg 1 ! clk $end
$var reg 1 " uclktx $end
$var reg 1 # uclkrx $end
$var reg 1 $ rst $end
$var reg 1 % rx $end
$var reg 8 & dintx [7:0] $end
$var reg 1 ' send $end
$var reg 1 ( tx $end
$var reg 8 ) doutrx [7:0] $end
$var reg 1 * donetx $end
$var reg 1 + donerx $end
$upscope $end


$scope module dut $end
$var wire 1 , clk $end
$var wire 1 - rst $end
$var wire 1 . rx $end
$var wire 8 / dintx [7:0] $end
$var wire 1 0 send $end
$var wire 1 1 tx $end
$var wire 8 2 doutrx [7:0] $end
$var wire 1 3 donetx $end
$var wire 1 4 donerx $end
$var parameter 32 5 clk_freq [31:0] $end
$var parameter 32 6 baud_rate [31:0] $end

$scope module utx $end
$var wire 1 7 clk $end
$var wire 1 8 rst $end
$var wire 1 9 send $end
$var wire 8 : tx_data [7:0] $end
$var reg 1 ; tx $end
$var reg 1 < donetx $end
$var integer 32 = count $end
$var integer 32 > counts $end
$var reg 1 ? uclk $end
$var reg 2 @ state $end
$var reg 8 A din [7:0] $end
$var parameter 32 B clk_freq [31:0] $end
$var parameter 32 C baud_rate [31:0] $end
$var parameter 32 D clkcount [31:0] $end
$upscope $end


$scope module rtx $end
$var wire 1 E clk $end
$var wire 1 F rst $end
$var wire 1 G rx $end
$var reg 1 H done $end
$var reg 8 I rxdata [7:0] $end
$var integer 32 J count $end
$var integer 32 K counts $end
$var reg 1 L uclk $end
$var reg 2 M state $end
$var parameter 32 N clk_freq [31:0] $end
$var parameter 32 O baud_rate [31:0] $end
$var parameter 32 P clkcount [31:0] $end
$upscope $end

$upscope $end

$upscope $end

$enddefinitions $end
$dumpvars
0!
0"
0#
1$
1%
b0 &
0'
1(
b0 )
0*
0+
0,
1-
1.
b0 /
00
x1
bx 2
x3
x4
b11110100001001000000 5
b10010110000000 6
07
18
09
b0 :
x;
x<
b0 =
b0 >
0?
b0 @
bx A
b11110100001001000000 B
b10010110000000 C
b1101000 D
0E
1F
1G
xH
bx I
b0 J
b0 K
0L
b0 M
b11110100001001000000 N
b10010110000000 O
b1101000 P
$end
#10000
1!
1,
17
1E
b1 =
b1 J
#20000
0!
0,
07
0E
#30000
1!
1,
17
1E
b10 =
b10 J
#40000
0!
0,
07
0E
#50000
1!
1,
17
1E
b11 =
b11 J
#60000
0!
0,
07
0E
#70000
1!
1,
17
1E
b100 =
b100 J
#80000
0!
0,
07
0E
#90000
1!
1,
17
1E
b101 =
b101 J
#100000
0!
0,
07
0E
#110000
1!
1,
17
1E
b110 =
b110 J
#120000
0!
0,
07
0E
#130000
1!
1,
17
1E
b111 =
b111 J
#140000
0!
0,
07
0E
#150000
1!
1,
17
1E
b1000 =
b1000 J
#160000
0!
0,
07
0E
#170000
1!
1,
17
1E
b1001 =
b1001 J
#180000
0!
0,
07
0E
#190000
1!
1,
17
1E
b1010 =
b1010 J
#200000
0!
0,
07
0E
#210000
1!
1,
17
1E
b1011 =
b1011 J
#220000
0!
0,
07
0E
#230000
1!
1,
17
1E
b1100 =
b1100 J
#240000
0!
0,
07
0E
#250000
1!
1,
17
1E
b1101 =
b1101 J
#260000
0!
0,
07
0E
#270000
1!
1,
17
1E
b1110 =
b1110 J
#280000
0!
0,
07
0E
#290000
1!
1,
17
1E
b1111 =
b1111 J
#300000
0!
0,
07
0E
#310000
1!
1,
17
1E
b10000 =
b10000 J
#320000
0!
0,
07
0E
#330000
1!
1,
17
1E
b10001 =
b10001 J
#340000
0!
0,
07
0E
#350000
1!
1,
17
1E
b10010 =
b10010 J
#360000
0!
0,
07
0E
#370000
1!
1,
17
1E
b10011 =
b10011 J
#380000
0!
0,
07
0E
#390000
1!
1,
17
1E
b10100 =
b10100 J
#400000
0!
0,
07
0E
#410000
1!
1,
17
1E
b10101 =
b10101 J
#420000
0!
0,
07
0E
#430000
1!
1,
17
1E
b10110 =
b10110 J
#440000
0!
0,
07
0E
#450000
1!
1,
17
1E
b10111 =
b10111 J
#460000
0!
0,
07
0E
#470000
1!
1,
17
1E
b11000 =
b11000 J
#480000
0!
0,
07
0E
#490000
1!
1,
17
1E
b11001 =
b11001 J
#500000
0!
0,
07
0E
#510000
1!
1,
17
1E
b11010 =
b11010 J
#520000
0!
0,
07
0E
#530000
1!
1,
17
1E
b11011 =
b11011 J
#540000
0!
0,
07
0E
#550000
1!
1,
17
1E
b11100 =
b11100 J
#560000
0!
0,
07
0E
#570000
1!
1,
17
1E
b11101 =
b11101 J
#580000
0!
0,
07
0E
#590000
1!
1,
17
1E
b11110 =
b11110 J
#600000
0!
0,
07
0E
#610000
1!
1,
17
1E
b11111 =
b11111 J
#620000
0!
0,
07
0E
#630000
1!
1,
17
1E
b100000 =
b100000 J
#640000
0!
0,
07
0E
#650000
1!
1,
17
1E
b100001 =
b100001 J
#660000
0!
0,
07
0E
#670000
1!
1,
17
1E
b100010 =
b100010 J
#680000
0!
0,
07
0E
#690000
1!
1,
17
1E
b100011 =
b100011 J
#700000
0!
0,
07
0E
#710000
1!
1,
17
1E
b100100 =
b100100 J
#720000
0!
0,
07
0E
#730000
1!
1,
17
1E
b100101 =
b100101 J
#740000
0!
0,
07
0E
#750000
1!
1,
17
1E
b100110 =
b100110 J
#760000
0!
0,
07
0E
#770000
1!
1,
17
1E
b100111 =
b100111 J
#780000
0!
0,
07
0E
#790000
1!
1,
17
1E
b101000 =
b101000 J
#800000
0!
0,
07
0E
#810000
1!
1,
17
1E
b101001 =
b101001 J
#820000
0!
0,
07
0E
#830000
1!
1,
17
1E
b101010 =
b101010 J
#840000
0!
0,
07
0E
#850000
1!
1,
17
1E
b101011 =
b101011 J
#860000
0!
0,
07
0E
#870000
1!
1,
17
1E
b101100 =
b101100 J
#880000
0!
0,
07
0E
#890000
1!
1,
17
1E
b101101 =
b101101 J
#900000
0!
0,
07
0E
#910000
1!
1,
17
1E
b101110 =
b101110 J
#920000
0!
0,
07
0E
#930000
1!
1,
17
1E
b101111 =
b101111 J
#940000
0!
0,
07
0E
#950000
1!
1,
17
1E
b110000 =
b110000 J
#960000
0!
0,
07
0E
#970000
1!
1,
17
1E
b110001 =
b110001 J
#980000
0!
0,
07
0E
#990000
1!
1,
17
1E
b110010 =
b110010 J
#1000000
0!
0,
07
0E
#1010000
1!
1,
17
1E
b110011 =
b110011 J
#1020000
0!
0,
07
0E
#1030000
1!
1,
17
1E
b110100 =
b110100 J
#1040000
0!
0,
07
0E
#1050000
1!
1,
17
1E
b0 =
1?
b0 J
1L
1"
1#
b0 I
0H
04
b0 2
b0 )
#1060000
0!
0,
07
0E
#1070000
1!
1,
17
1E
b1 =
b1 J
#1080000
0!
0,
07
0E
#1090000
1!
1,
17
1E
b10 =
b10 J
#1100000
0!
0,
07
0E
#1110000
1!
1,
17
1E
b11 =
b11 J
#1120000
0!
0,
07
0E
#1130000
1!
1,
17
1E
b100 =
b100 J
#1140000
0!
0,
07
0E
#1150000
1!
1,
17
1E
b101 =
b101 J
#1160000
0!
0,
07
0E
#1170000
1!
1,
17
1E
b110 =
b110 J
#1180000
0!
0,
07
0E
#1190000
1!
1,
17
1E
b111 =
b111 J
#1200000
0!
0,
07
0E
#1210000
1!
1,
17
1E
b1000 =
b1000 J
#1220000
0!
0,
07
0E
#1230000
1!
1,
17
1E
b1001 =
b1001 J
#1240000
0!
0,
07
0E
#1250000
1!
1,
17
1E
b1010 =
b1010 J
#1260000
0!
0,
07
0E
#1270000
1!
1,
17
1E
b1011 =
b1011 J
#1280000
0!
0,
07
0E
#1290000
1!
1,
17
1E
b1100 =
b1100 J
#1300000
0!
0,
07
0E
#1310000
1!
1,
17
1E
b1101 =
b1101 J
#1320000
0!
0,
07
0E
#1330000
1!
1,
17
1E
b1110 =
b1110 J
#1340000
0!
0,
07
0E
#1350000
1!
1,
17
1E
b1111 =
b1111 J
#1360000
0!
0,
07
0E
#1370000
1!
1,
17
1E
b10000 =
b10000 J
#1380000
0!
0,
07
0E
#1390000
1!
1,
17
1E
b10001 =
b10001 J
#1400000
0!
0,
07
0E
#1410000
1!
1,
17
1E
b10010 =
b10010 J
#1420000
0!
0,
07
0E
#1430000
1!
1,
17
1E
b10011 =
b10011 J
#1440000
0!
0,
07
0E
#1450000
1!
1,
17
1E
b10100 =
b10100 J
#1460000
0!
0,
07
0E
#1470000
1!
1,
17
1E
b10101 =
b10101 J
#1480000
0!
0,
07
0E
#1490000
1!
1,
17
1E
b10110 =
b10110 J
#1500000
0!
0,
07
0E
#1510000
1!
1,
17
1E
b10111 =
b10111 J
#1520000
0!
0,
07
0E
#1530000
1!
1,
17
1E
b11000 =
b11000 J
#1540000
0!
0,
07
0E
#1550000
1!
1,
17
1E
b11001 =
b11001 J
#1560000
0!
0,
07
0E
#1570000
1!
1,
17
1E
b11010 =
b11010 J
#1580000
0!
0,
07
0E
#1590000
1!
1,
17
1E
b11011 =
b11011 J
#1600000
0!
0,
07
0E
#1610000
1!
1,
17
1E
b11100 =
b11100 J
#1620000
0!
0,
07
0E
#1630000
1!
1,
17
1E
b11101 =
b11101 J
#1640000
0!
0,
07
0E
#1650000
1!
1,
17
1E
b11110 =
b11110 J
#1660000
0!
0,
07
0E
#1670000
1!
1,
17
1E
b11111 =
b11111 J
#1680000
0!
0,
07
0E
#1690000
1!
1,
17
1E
b100000 =
b100000 J
#1700000
0!
0,
07
0E
#1710000
1!
1,
17
1E
b100001 =
b100001 J
#1720000
0!
0,
07
0E
#1730000
1!
1,
17
1E
b100010 =
b100010 J
#1740000
0!
0,
07
0E
#1750000
1!
1,
17
1E
b100011 =
b100011 J
#1760000
0!
0,
07
0E
#1770000
1!
1,
17
1E
b100100 =
b100100 J
#1780000
0!
0,
07
0E
#1790000
1!
1,
17
1E
b100101 =
b100101 J
#1800000
0!
0,
07
0E
#1810000
1!
1,
17
1E
b100110 =
b100110 J
#1820000
0!
0,
07
0E
#1830000
1!
1,
17
1E
b100111 =
b100111 J
#1840000
0!
0,
07
0E
#1850000
1!
1,
17
1E
b101000 =
b101000 J
#1860000
0!
0,
07
0E
#1870000
1!
1,
17
1E
b101001 =
b101001 J
#1880000
0!
0,
07
0E
#1890000
1!
1,
17
1E
b101010 =
b101010 J
#1900000
0!
0,
07
0E
#1910000
1!
1,
17
1E
b101011 =
b101011 J
#1920000
0!
0,
07
0E
#1930000
1!
1,
17
1E
b101100 =
b101100 J
#1940000
0!
0,
07
0E
#1950000
1!
1,
17
1E
b101101 =
b101101 J
#1960000
0!
0,
07
0E
#1970000
1!
1,
17
1E
b101110 =
b101110 J
#1980000
0!
0,
07
0E
#1990000
1!
1,
17
1E
b101111 =
b101111 J
#2000000
0!
0,
07
0E
#2010000
1!
1,
17
1E
b110000 =
b110000 J
#2020000
0!
0,
07
0E
#2030000
1!
1,
17
1E
b110001 =
b110001 J
#2040000
0!
0,
07
0E
#2050000
1!
1,
17
1E
b110010 =
b110010 J
#2060000
0!
0,
07
0E
#2070000
1!
1,
17
1E
b110011 =
b110011 J
#2080000
0!
0,
07
0E
#2090000
1!
1,
17
1E
b110100 =
b110100 J
#2100000
0!
0,
07
0E
#2110000
1!
1,
17
1E
b0 =
0?
b0 J
0L
0"
0#
#2120000
0!
0,
07
0E
#2130000
1!
1,
17
1E
b1 =
b1 J
#2140000
0!
0,
07
0E
#2150000
1!
1,
17
1E
b10 =
b10 J
#2160000
0!
0,
07
0E
#2170000
1!
1,
17
1E
b11 =
b11 J
#2180000
0!
0,
07
0E
#2190000
1!
1,
17
1E
b100 =
b100 J
#2200000
0!
0,
07
0E
#2210000
1!
1,
17
1E
b101 =
b101 J
#2220000
0!
0,
07
0E
#2230000
1!
1,
17
1E
b110 =
b110 J
#2240000
0!
0,
07
0E
#2250000
1!
1,
17
1E
b111 =
b111 J
#2260000
0!
0,
07
0E
#2270000
1!
1,
17
1E
b1000 =
b1000 J
#2280000
0!
0,
07
0E
#2290000
1!
1,
17
1E
b1001 =
b1001 J
#2300000
0!
0,
07
0E
#2310000
1!
1,
17
1E
b1010 =
b1010 J
#2320000
0!
0,
07
0E
#2330000
1!
1,
17
1E
b1011 =
b1011 J
#2340000
0!
0,
07
0E
#2350000
1!
1,
17
1E
b1100 =
b1100 J
#2360000
0!
0,
07
0E
#2370000
1!
1,
17
1E
b1101 =
b1101 J
#2380000
0!
0,
07
0E
#2390000
1!
1,
17
1E
b1110 =
b1110 J
#2400000
0!
0,
07
0E
#2410000
1!
1,
17
1E
b1111 =
b1111 J
#2420000
0!
0,
07
0E
#2430000
1!
1,
17
1E
b10000 =
b10000 J
#2440000
0!
0,
07
0E
#2450000
1!
1,
17
1E
b10001 =
b10001 J
#2460000
0!
0,
07
0E
#2470000
1!
1,
17
1E
b10010 =
b10010 J
#2480000
0!
0,
07
0E
#2490000
1!
1,
17
1E
b10011 =
b10011 J
#2500000
0!
0,
07
0E
#2510000
1!
1,
17
1E
b10100 =
b10100 J
#2520000
0!
0,
07
0E
#2530000
1!
1,
17
1E
b10101 =
b10101 J
#2540000
0!
0,
07
0E
#2550000
1!
1,
17
1E
b10110 =
b10110 J
#2560000
0!
0,
07
0E
#2570000
1!
1,
17
1E
b10111 =
b10111 J
#2580000
0!
0,
07
0E
#2590000
1!
1,
17
1E
b11000 =
b11000 J
#2600000
0!
0,
07
0E
#2610000
1!
1,
17
1E
b11001 =
b11001 J
#2620000
0!
0,
07
0E
#2630000
1!
1,
17
1E
b11010 =
b11010 J
#2640000
0!
0,
07
0E
#2650000
1!
1,
17
1E
b11011 =
b11011 J
#2660000
0!
0,
07
0E
#2670000
1!
1,
17
1E
b11100 =
b11100 J
#2680000
0!
0,
07
0E
#2690000
1!
1,
17
1E
b11101 =
b11101 J
#2700000
0!
0,
07
0E
#2710000
1!
1,
17
1E
b11110 =
b11110 J
#2720000
0!
0,
07
0E
#2730000
1!
1,
17
1E
b11111 =
b11111 J
#2740000
0!
0,
07
0E
#2750000
1!
1,
17
1E
b100000 =
b100000 J
#2760000
0!
0,
07
0E
#2770000
1!
1,
17
1E
b100001 =
b100001 J
#2780000
0!
0,
07
0E
#2790000
1!
1,
17
1E
b100010 =
b100010 J
#2800000
0!
0,
07
0E
#2810000
1!
1,
17
1E
b100011 =
b100011 J
#2820000
0!
0,
07
0E
#2830000
1!
1,
17
1E
b100100 =
b100100 J
#2840000
0!
0,
07
0E
#2850000
1!
1,
17
1E
b100101 =
b100101 J
#2860000
0!
0,
07
0E
#2870000
1!
1,
17
1E
b100110 =
b100110 J
#2880000
0!
0,
07
0E
#2890000
1!
1,
17
1E
b100111 =
b100111 J
#2900000
0!
0,
07
0E
#2910000
1!
1,
17
1E
b101000 =
b101000 J
#2920000
0!
0,
07
0E
#2930000
1!
1,
17
1E
b101001 =
b101001 J
#2940000
0!
0,
07
0E
#2950000
1!
1,
17
1E
b101010 =
b101010 J
#2960000
0!
0,
07
0E
#2970000
1!
1,
17
1E
b101011 =
b101011 J
#2980000
0!
0,
07
0E
#2990000
1!
1,
17
1E
b101100 =
b101100 J
#3000000
0!
0,
07
0E
#3010000
1!
1,
17
1E
b101101 =
b101101 J
#3020000
0!
0,
07
0E
#3030000
1!
1,
17
1E
b101110 =
b101110 J
#3040000
0!
0,
07
0E
#3050000
1!
1,
17
1E
b101111 =
b101111 J
#3060000
0!
0,
07
0E
#3070000
1!
1,
17
1E
b110000 =
b110000 J
#3080000
0!
0,
07
0E
#3090000
1!
1,
17
1E
b110001 =
b110001 J
#3100000
0!
0,
07
0E
#3110000
1!
1,
17
1E
b110010 =
b110010 J
#3120000
0!
0,
07
0E
#3130000
1!
1,
17
1E
b110011 =
b110011 J
#3140000
0!
0,
07
0E
#3150000
1!
1,
17
1E
b110100 =
b110100 J
#3160000
0!
0,
07
0E
#3170000
1!
1,
17
1E
b0 =
1?
b0 J
1L
1"
1#
#3180000
0!
0,
07
0E
#3190000
1!
1,
17
1E
b1 =
b1 J
#3200000
0!
0,
07
0E
#3210000
1!
1,
17
1E
b10 =
b10 J
#3220000
0!
0,
07
0E
#3230000
1!
1,
17
1E
b11 =
b11 J
#3240000
0!
0,
07
0E
#3250000
1!
1,
17
1E
b100 =
b100 J
#3260000
0!
0,
07
0E
#3270000
1!
1,
17
1E
b101 =
b101 J
#3280000
0!
0,
07
0E
#3290000
1!
1,
17
1E
b110 =
b110 J
#3300000
0!
0,
07
0E
#3310000
1!
1,
17
1E
b111 =
b111 J
#3320000
0!
0,
07
0E
#3330000
1!
1,
17
1E
b1000 =
b1000 J
#3340000
0!
0,
07
0E
#3350000
1!
1,
17
1E
b1001 =
b1001 J
#3360000
0!
0,
07
0E
#3370000
1!
1,
17
1E
b1010 =
b1010 J
#3380000
0!
0,
07
0E
#3390000
1!
1,
17
1E
b1011 =
b1011 J
#3400000
0!
0,
07
0E
#3410000
1!
1,
17
1E
b1100 =
b1100 J
#3420000
0!
0,
07
0E
#3430000
1!
1,
17
1E
b1101 =
b1101 J
#3440000
0!
0,
07
0E
#3450000
1!
1,
17
1E
b1110 =
b1110 J
#3460000
0!
0,
07
0E
#3470000
1!
1,
17
1E
b1111 =
b1111 J
#3480000
0!
0,
07
0E
#3490000
1!
1,
17
1E
b10000 =
b10000 J
#3500000
0!
0,
07
0E
#3510000
1!
1,
17
1E
b10001 =
b10001 J
#3520000
0!
0,
07
0E
#3530000
1!
1,
17
1E
b10010 =
b10010 J
#3540000
0!
0,
07
0E
#3550000
1!
1,
17
1E
b10011 =
b10011 J
#3560000
0!
0,
07
0E
#3570000
1!
1,
17
1E
b10100 =
b10100 J
#3580000
0!
0,
07
0E
#3590000
1!
1,
17
1E
b10101 =
b10101 J
#3600000
0!
0,
07
0E
#3610000
1!
1,
17
1E
b10110 =
b10110 J
#3620000
0!
0,
07
0E
#3630000
1!
1,
17
1E
b10111 =
b10111 J
#3640000
0!
0,
07
0E
#3650000
1!
1,
17
1E
b11000 =
b11000 J
#3660000
0!
0,
07
0E
#3670000
1!
1,
17
1E
b11001 =
b11001 J
#3680000
0!
0,
07
0E
#3690000
1!
1,
17
1E
b11010 =
b11010 J
#3700000
0!
0,
07
0E
#3710000
1!
1,
17
1E
b11011 =
b11011 J
#3720000
0!
0,
07
0E
#3730000
1!
1,
17
1E
b11100 =
b11100 J
#3740000
0!
0,
07
0E
#3750000
1!
1,
17
1E
b11101 =
b11101 J
#3760000
0!
0,
07
0E
#3770000
1!
1,
17
1E
b11110 =
b11110 J
#3780000
0!
0,
07
0E
#3790000
1!
1,
17
1E
b11111 =
b11111 J
#3800000
0!
0,
07
0E
#3810000
1!
1,
17
1E
b100000 =
b100000 J
#3820000
0!
0,
07
0E
#3830000
1!
1,
17
1E
b100001 =
b100001 J
#3840000
0!
0,
07
0E
#3850000
1!
1,
17
1E
b100010 =
b100010 J
#3860000
0!
0,
07
0E
#3870000
1!
1,
17
1E
b100011 =
b100011 J
#3880000
0!
0,
07
0E
#3890000
1!
1,
17
1E
b100100 =
b100100 J
#3900000
0!
0,
07
0E
#3910000
1!
1,
17
1E
b100101 =
b100101 J
#3920000
0!
0,
07
0E
#3930000
1!
1,
17
1E
b100110 =
b100110 J
#3940000
0!
0,
07
0E
#3950000
1!
1,
17
1E
b100111 =
b100111 J
#3960000
0!
0,
07
0E
#3970000
1!
1,
17
1E
b101000 =
b101000 J
#3980000
0!
0,
07
0E
#3990000
1!
1,
17
1E
b101001 =
b101001 J
#4000000
0!
0,
07
0E
#4010000
1!
1,
17
1E
b101010 =
b101010 J
#4020000
0!
0,
07
0E
#4030000
1!
1,
17
1E
b101011 =
b101011 J
#4040000
0!
0,
07
0E
#4050000
1!
1,
17
1E
b101100 =
b101100 J
#4060000
0!
0,
07
0E
#4070000
1!
1,
17
1E
b101101 =
b101101 J
#4080000
0!
0,
07
0E
#4090000
1!
1,
17
1E
b101110 =
b101110 J
#4100000
0!
0,
07
0E
#4110000
1!
1,
17
1E
b101111 =
b101111 J
#4120000
0!
0,
07
0E
#4130000
1!
1,
17
1E
b110000 =
b110000 J
#4140000
0!
0,
07
0E
#4150000
1!
1,
17
1E
b110001 =
b110001 J
#4160000
0!
0,
07
0E
#4170000
1!
1,
17
1E
b110010 =
b110010 J
#4180000
0!
0,
07
0E
#4190000
1!
1,
17
1E
b110011 =
b110011 J
#4200000
0!
0,
07
0E
#4210000
1!
1,
17
1E
b110100 =
b110100 J
#4220000
0!
0,
07
0E
#4230000
1!
1,
17
1E
b0 =
0?
b0 J
0L
0"
0#
#4240000
0!
0,
07
0E
#4250000
1!
1,
17
1E
b1 =
b1 J
#4260000
0!
0,
07
0E
#4270000
1!
1,
17
1E
b10 =
b10 J
#4280000
0!
0,
07
0E
#4290000
1!
1,
17
1E
b11 =
b11 J
#4300000
0!
0,
07
0E
#4310000
1!
1,
17
1E
b100 =
b100 J
#4320000
0!
0,
07
0E
#4330000
1!
1,
17
1E
b101 =
b101 J
#4340000
0!
0,
07
0E
#4350000
1!
1,
17
1E
b110 =
b110 J
#4360000
0!
0,
07
0E
#4370000
1!
1,
17
1E
b111 =
b111 J
#4380000
0!
0,
07
0E
#4390000
1!
1,
17
1E
b1000 =
b1000 J
#4400000
0!
0,
07
0E
#4410000
1!
1,
17
1E
b1001 =
b1001 J
#4420000
0!
0,
07
0E
#4430000
1!
1,
17
1E
b1010 =
b1010 J
#4440000
0!
0,
07
0E
#4450000
1!
1,
17
1E
b1011 =
b1011 J
#4460000
0!
0,
07
0E
#4470000
1!
1,
17
1E
b1100 =
b1100 J
#4480000
0!
0,
07
0E
#4490000
1!
1,
17
1E
b1101 =
b1101 J
#4500000
0!
0,
07
0E
#4510000
1!
1,
17
1E
b1110 =
b1110 J
#4520000
0!
0,
07
0E
#4530000
1!
1,
17
1E
b1111 =
b1111 J
#4540000
0!
0,
07
0E
#4550000
1!
1,
17
1E
b10000 =
b10000 J
#4560000
0!
0,
07
0E
#4570000
1!
1,
17
1E
b10001 =
b10001 J
#4580000
0!
0,
07
0E
#4590000
1!
1,
17
1E
b10010 =
b10010 J
#4600000
0!
0,
07
0E
#4610000
1!
1,
17
1E
b10011 =
b10011 J
#4620000
0!
0,
07
0E
#4630000
1!
1,
17
1E
b10100 =
b10100 J
#4640000
0!
0,
07
0E
#4650000
1!
1,
17
1E
b10101 =
b10101 J
#4660000
0!
0,
07
0E
#4670000
1!
1,
17
1E
b10110 =
b10110 J
#4680000
0!
0,
07
0E
#4690000
1!
1,
17
1E
b10111 =
b10111 J
#4700000
0!
0,
07
0E
#4710000
1!
1,
17
1E
b11000 =
b11000 J
#4720000
0!
0,
07
0E
#4730000
1!
1,
17
1E
b11001 =
b11001 J
#4740000
0!
0,
07
0E
#4750000
1!
1,
17
1E
b11010 =
b11010 J
#4760000
0!
0,
07
0E
#4770000
1!
1,
17
1E
b11011 =
b11011 J
#4780000
0!
0,
07
0E
#4790000
1!
1,
17
1E
b11100 =
b11100 J
#4800000
0!
0,
07
0E
#4810000
1!
1,
17
1E
b11101 =
b11101 J
#4820000
0!
0,
07
0E
#4830000
1!
1,
17
1E
b11110 =
b11110 J
#4840000
0!
0,
07
0E
#4850000
1!
1,
17
1E
b11111 =
b11111 J
#4860000
0!
0,
07
0E
#4870000
1!
1,
17
1E
b100000 =
b100000 J
#4880000
0!
0,
07
0E
#4890000
1!
1,
17
1E
b100001 =
b100001 J
#4900000
0!
0,
07
0E
#4910000
1!
1,
17
1E
b100010 =
b100010 J
#4920000
0!
0,
07
0E
#4930000
1!
1,
17
1E
b100011 =
b100011 J
#4940000
0!
0,
07
0E
#4950000
1!
1,
17
1E
b100100 =
b100100 J
#4960000
0!
0,
07
0E
#4970000
1!
1,
17
1E
b100101 =
b100101 J
#4980000
0!
0,
07
0E
#4990000
1!
1,
17
1E
b100110 =
b100110 J
#5000000
0!
0,
07
0E
#5010000
1!
1,
17
1E
b100111 =
b100111 J
#5020000
0!
0,
07
0E
#5030000
1!
1,
17
1E
b101000 =
b101000 J
#5040000
0!
0,
07
0E
#5050000
1!
1,
17
1E
b101001 =
b101001 J
#5060000
0!
0,
07
0E
#5070000
1!
1,
17
1E
b101010 =
b101010 J
#5080000
0!
0,
07
0E
#5090000
1!
1,
17
1E
b101011 =
b101011 J
#5100000
0!
0,
07
0E
#5110000
1!
1,
17
1E
b101100 =
b101100 J
#5120000
0!
0,
07
0E
#5130000
1!
1,
17
1E
b101101 =
b101101 J
#5140000
0!
0,
07
0E
#5150000
1!
1,
17
1E
b101110 =
b101110 J
#5160000
0!
0,
07
0E
#5170000
1!
1,
17
1E
b101111 =
b101111 J
#5180000
0!
0,
07
0E
#5190000
1!
1,
17
1E
b110000 =
b110000 J
#5200000
0!
0,
07
0E
#5210000
1!
1,
17
1E
b110001 =
b110001 J
#5220000
0!
0,
07
0E
#5230000
1!
1,
17
1E
b110010 =
b110010 J
#5240000
0!
0,
07
0E
#5250000
1!
1,
17
1E
b110011 =
b110011 J
#5260000
0!
0,
07
0E
#5270000
1!
1,
17
1E
b110100 =
b110100 J
#5280000
0!
0,
07
0E
#5290000
1!
1,
17
1E
b0 =
1?
b0 J
1L
1"
1#
#5300000
0!
0,
07
0E
#5310000
1!
1,
17
1E
b1 =
b1 J
#5320000
0!
0,
07
0E
#5330000
1!
1,
17
1E
b10 =
b10 J
#5340000
0!
0,
07
0E
#5350000
1!
1,
17
1E
b11 =
b11 J
#5360000
0!
0,
07
0E
#5370000
1!
1,
17
1E
b100 =
b100 J
#5380000
0!
0,
07
0E
#5390000
1!
1,
17
1E
b101 =
b101 J
#5400000
0!
0,
07
0E
#5410000
1!
1,
17
1E
b110 =
b110 J
#5420000
0!
0,
07
0E
#5430000
1!
1,
17
1E
b111 =
b111 J
#5440000
0!
0,
07
0E
#5450000
1!
1,
17
1E
b1000 =
b1000 J
#5460000
0!
0,
07
0E
#5470000
1!
1,
17
1E
b1001 =
b1001 J
#5480000
0!
0,
07
0E
#5490000
1!
1,
17
1E
b1010 =
b1010 J
#5500000
0!
0,
07
0E
#5510000
1!
1,
17
1E
b1011 =
b1011 J
#5520000
0!
0,
07
0E
#5530000
1!
1,
17
1E
b1100 =
b1100 J
#5540000
0!
0,
07
0E
#5550000
1!
1,
17
1E
b1101 =
b1101 J
#5560000
0!
0,
07
0E
#5570000
1!
1,
17
1E
b1110 =
b1110 J
#5580000
0!
0,
07
0E
#5590000
1!
1,
17
1E
b1111 =
b1111 J
#5600000
0!
0,
07
0E
#5610000
1!
1,
17
1E
b10000 =
b10000 J
#5620000
0!
0,
07
0E
#5630000
1!
1,
17
1E
b10001 =
b10001 J
#5640000
0!
0,
07
0E
#5650000
1!
1,
17
1E
b10010 =
b10010 J
#5660000
0!
0,
07
0E
#5670000
1!
1,
17
1E
b10011 =
b10011 J
#5680000
0!
0,
07
0E
#5690000
1!
1,
17
1E
b10100 =
b10100 J
#5700000
0!
0,
07
0E
#5710000
1!
1,
17
1E
b10101 =
b10101 J
#5720000
0!
0,
07
0E
#5730000
1!
1,
17
1E
b10110 =
b10110 J
#5740000
0!
0,
07
0E
#5750000
1!
1,
17
1E
b10111 =
b10111 J
#5760000
0!
0,
07
0E
#5770000
1!
1,
17
1E
b11000 =
b11000 J
#5780000
0!
0,
07
0E
#5790000
1!
1,
17
1E
b11001 =
b11001 J
#5800000
0!
0,
07
0E
#5810000
1!
1,
17
1E
b11010 =
b11010 J
#5820000
0!
0,
07
0E
#5830000
1!
1,
17
1E
b11011 =
b11011 J
#5840000
0!
0,
07
0E
#5850000
1!
1,
17
1E
b11100 =
b11100 J
#5860000
0!
0,
07
0E
#5870000
1!
1,
17
1E
b11101 =
b11101 J
#5880000
0!
0,
07
0E
#5890000
1!
1,
17
1E
b11110 =
b11110 J
#5900000
0!
0,
07
0E
#5910000
1!
1,
17
1E
b11111 =
b11111 J
#5920000
0!
0,
07
0E
#5930000
1!
1,
17
1E
b100000 =
b100000 J
#5940000
0!
0,
07
0E
#5950000
1!
1,
17
1E
b100001 =
b100001 J
#5960000
0!
0,
07
0E
#5970000
1!
1,
17
1E
b100010 =
b100010 J
#5980000
0!
0,
07
0E
#5990000
1!
1,
17
1E
b100011 =
b100011 J
#6000000
0!
0,
07
0E
#6010000
1!
1,
17
1E
b100100 =
b100100 J
#6020000
0!
0,
07
0E
#6030000
1!
1,
17
1E
b100101 =
b100101 J
#6040000
0!
0,
07
0E
#6050000
1!
1,
17
1E
b100110 =
b100110 J
#6060000
0!
0,
07
0E
#6070000
1!
1,
17
1E
b100111 =
b100111 J
#6080000
0!
0,
07
0E
#6090000
1!
1,
17
1E
b101000 =
b101000 J
#6100000
0!
0,
07
0E
#6110000
1!
1,
17
1E
b101001 =
b101001 J
#6120000
0!
0,
07
0E
#6130000
1!
1,
17
1E
b101010 =
b101010 J
#6140000
0!
0,
07
0E
#6150000
1!
1,
17
1E
b101011 =
b101011 J
#6160000
0!
0,
07
0E
#6170000
1!
1,
17
1E
b101100 =
b101100 J
#6180000
0!
0,
07
0E
#6190000
1!
1,
17
1E
b101101 =
b101101 J
#6200000
0!
0,
07
0E
#6210000
1!
1,
17
1E
b101110 =
b101110 J
#6220000
0!
0,
07
0E
#6230000
1!
1,
17
1E
b101111 =
b101111 J
#6240000
0!
0,
07
0E
#6250000
1!
1,
17
1E
b110000 =
b110000 J
#6260000
0!
0,
07
0E
#6270000
1!
1,
17
1E
b110001 =
b110001 J
#6280000
0!
0,
07
0E
#6290000
1!
1,
17
1E
b110010 =
b110010 J
#6300000
0!
0,
07
0E
#6310000
1!
1,
17
1E
b110011 =
b110011 J
#6320000
0!
0,
07
0E
#6330000
1!
1,
17
1E
b110100 =
b110100 J
#6340000
0!
0,
07
0E
